\relax 
\providecommand{\transparent@use}[1]{}
\providecommand\hyper@newdestlabel[2]{}
\providecommand*\new@tpo@label[2]{}
\catcode `"\active 
\abx@aux@sortscheme{nty}
\abx@aux@refcontext{nty/global/}
\providecommand\HyperFirstAtBeginDocument{\AtBeginDocument}
\HyperFirstAtBeginDocument{\ifx\hyper@anchor\@undefined
\global\let\oldcontentsline\contentsline
\gdef\contentsline#1#2#3#4{\oldcontentsline{#1}{#2}{#3}}
\global\let\oldnewlabel\newlabel
\gdef\newlabel#1#2{\newlabelxx{#1}#2}
\gdef\newlabelxx#1#2#3#4#5#6{\oldnewlabel{#1}{{#2}{#3}}}
\AtEndDocument{\ifx\hyper@anchor\@undefined
\let\contentsline\oldcontentsline
\let\newlabel\oldnewlabel
\fi}
\fi}
\global\let\hyper@last\relax 
\gdef\HyperFirstAtBeginDocument#1{#1}
\providecommand\HyField@AuxAddToFields[1]{}
\providecommand\HyField@AuxAddToCoFields[2]{}
\AC@reset@newl@bel
\@writefile{toc}{\boolfalse {citerequest}\boolfalse {citetracker}\boolfalse {pagetracker}\boolfalse {backtracker}\relax }
\@writefile{lof}{\boolfalse {citerequest}\boolfalse {citetracker}\boolfalse {pagetracker}\boolfalse {backtracker}\relax }
\@writefile{lot}{\boolfalse {citerequest}\boolfalse {citetracker}\boolfalse {pagetracker}\boolfalse {backtracker}\relax }
\select@language{ngerman}
\@writefile{toc}{\defcounter {refsection}{0}\relax }\@writefile{toc}{\select@language{ngerman}}
\@writefile{lof}{\defcounter {refsection}{0}\relax }\@writefile{lof}{\select@language{ngerman}}
\@writefile{lot}{\defcounter {refsection}{0}\relax }\@writefile{lot}{\select@language{ngerman}}
\@input{abkuerzungsverzeichnis.aux}
\@writefile{toc}{\contentsline {chapter}{\numberline {1}Einleitung}{1}{chapter.1}}
\@writefile{lof}{\addvspace {10\p@ }}
\@writefile{lot}{\addvspace {10\p@ }}
\@writefile{toc}{\contentsline {section}{\numberline {1.1}Motivation}{1}{section.1.1}}
\AC@undonewlabel{acro:EnEx}
\newlabel{acro:EnEx}{{1.1}{1}{Motivation}{section*.4}{}}
\acronymused{EnEx}
\AC@undonewlabel{acro:DLR}
\newlabel{acro:DLR}{{1.1}{1}{Motivation}{section*.5}{}}
\acronymused{DLR}
\AC@undonewlabel{acro:EnEx-nExT}
\newlabel{acro:EnEx-nExT}{{1.1}{1}{Motivation}{section*.6}{}}
\acronymused{EnEx-nExT}
\@writefile{toc}{\contentsline {section}{\numberline {1.2}EnEx-nExT}{2}{section.1.2}}
\acronymused{EnEx-nExT}
\acronymused{EnEx-nExT}
\@input{aufgabenstellung.aux}
\abx@aux@cite{EnEx-nExT}
\abx@aux@segm{0}{0}{EnEx-nExT}
\abx@aux@cite{heicks.2017}
\abx@aux@segm{0}{0}{heicks.2017}
\abx@aux@segm{0}{0}{EnEx-nExT}
\abx@aux@segm{0}{0}{heicks.2017}
\@input{messverfahren.aux}
\abx@aux@cite{Oertel.2012}
\abx@aux@segm{0}{0}{Oertel.2012}
\@input{entwicklung.aux}
\abx@aux@cite{Mansius.2012}
\abx@aux@segm{0}{0}{Mansius.2012}
\abx@aux@cite{ZLW:TechnischDaten}
\abx@aux@segm{0}{0}{ZLW:TechnischDaten}
\abx@aux@cite{NEMA17}
\abx@aux@segm{0}{0}{NEMA17}
\abx@aux@segm{0}{0}{NEMA17}
\abx@aux@segm{0}{0}{NEMA17}
\@input{bewertung.aux}
\abx@aux@refcontextdefaultsdone
\abx@aux@defaultrefcontext{0}{NEMA17}{nty/global/}
\abx@aux@defaultrefcontext{0}{ZLW:TechnischDaten}{nty/global/}
\abx@aux@defaultrefcontext{0}{heicks.2017}{nty/global/}
\abx@aux@defaultrefcontext{0}{Oertel.2012}{nty/global/}
\abx@aux@defaultrefcontext{0}{EnEx-nExT}{nty/global/}
\global\@namedef{scr@dte@chapter@lastmaxnumwidth}{11.8799pt}
\global\@namedef{scr@dte@section@lastmaxnumwidth}{19.71382pt}
\global\@namedef{scr@dte@subsection@lastmaxnumwidth}{28.8528pt}
